%YAML 1.1
%TAG !u! tag:unity3d.com,2011:
--- !u!114 &11400000
MonoBehaviour:
  m_ObjectHideFlags: 0
  m_CorrespondingSourceObject: {fileID: 0}
  m_PrefabInternal: {fileID: 0}
  m_GameObject: {fileID: 0}
  m_Enabled: 1
  m_EditorHideFlags: 0
  m_Script: {fileID: 11500000, guid: b7b74f9dd6b828e40a1ffb6744a50699, type: 3}
  m_Name: Bronze Sword
  m_EditorClassIdentifier: 
  itemType: 1
  effectType: 0
  itemName: Bronze Sword
  itemDescription: A sword made of bronze.
  itemSprite: {fileID: 21300202, guid: 0bc4ed27aef38a44bb72e80f9beb5326, type: 3}
  itemValue: 100
  itemSaleValue: 50
  modifyAmount: 100
  weaponPower: 10
  weaponMagic: 1
  armourPower: 0
  armourMagic: 0
  armourSpeed: 0
